# Blender MTL File: 'None'
# Material Count: 6

newmtl Back
Ns 96.078431
Ka 1.000000 1.000000 1.000000
Kd 0.070254 0.000000 0.640000
Ks 0.500000 0.500000 0.500000
Ke 0.000000 0.000000 0.000000
Ni 1.000000
d 1.000000
illum 2

newmtl Bottom
Ns 96.078431
Ka 1.000000 1.000000 1.000000
Kd 0.640000 0.640000 0.640000
Ks 0.500000 0.500000 0.500000
Ke 0.000000 0.000000 0.000000
Ni 1.000000
d 1.000000
illum 2

newmtl Front
Ns 96.078431
Ka 1.000000 1.000000 1.000000
Kd 0.640000 0.002835 0.000000
Ks 0.500000 0.500000 0.500000
Ke 0.000000 0.000000 0.000000
Ni 1.000000
d 1.000000
illum 2

newmtl Left
Ns 96.078431
Ka 1.000000 1.000000 1.000000
Kd 0.000000 0.000000 0.000000
Ks 0.500000 0.500000 0.500000
Ke 0.000000 0.000000 0.000000
Ni 1.000000
d 1.000000
illum 2

newmtl Right
Ns 96.078431
Ka 1.000000 1.000000 1.000000
Kd 0.065978 0.640000 0.007296
Ks 0.500000 0.500000 0.500000
Ke 0.000000 0.000000 0.000000
Ni 1.000000
d 1.000000
illum 2

newmtl Top
Ns 96.078431
Ka 1.000000 1.000000 1.000000
Kd 0.429305 0.115389 0.640000
Ks 0.500000 0.500000 0.500000
Ke 0.000000 0.000000 0.000000
Ni 1.000000
d 1.000000
illum 2
